{
    "board_id": "",
    "params": {
        "key": "1d4fe71dd193855686196e7768aa4b05",
        "token": "",
        "fields": "all",
        "actions": "all",
        "action_fields": "all",
        "actions_limit": 1000,
        "cards": "all",
        "card_fields": "all",
        "card_attachments": "true",
        "labels": "all",
        "lists": "all",
        "list_fields": "all",
        "members": "all",
        "member_fields": "all",
        "checklists": "all",
        "checklist_fields": "all",
        "organization": "false"
    }
}
